Visualize embeddings using four popular dimensionality reduction techniques
…
pca_fit |>
  tidy("scores")

# A tibble: 1,332 × 3
     row    PC   value
   <int> <dbl>   <dbl>
 1     1     1 -1.85  
 2     1     2 -0.0320
 3     1     3  0.235 
 4     1     4  0.528 
 5     2     1 -1.31  
 6     2     2  0.443 
 7     2     3  0.0274
 8     2     4  0.401 
 9     3     1 -1.37  
10     3     2  0.161 
# ℹ 1,322 more rows
…
library(plotly)
augmented_data <- pca_fit |>
  augment(penguins |> drop_na()) |>
  rename_with(~ gsub(".fitted", "", .x))
augmented_data

# A tibble: 333 × 13
   .rownames species island    bill_length_mm bill_depth_mm flipper_length_mm
   <chr>     <fct>   <fct>              <dbl>         <dbl>             <int>
 1 1         Adelie  Torgersen           39.1          18.7               181
 2 2         Adelie  Torgersen           39.5          17.4               186
 3 3         Adelie  Torgersen           40.3          18                 195
 4 4         Adelie  Torgersen           36.7          19.3               193
 5 5         Adelie  Torgersen           39.3          20.6               190
 6 6         Adelie  Torgersen           38.9          17.8               181
 7 7         Adelie  Torgersen           39.2          19.6               195
 8 8         Adelie  Torgersen           41.1          17.6               182
 9 9         Adelie  Torgersen           38.6          21.2               191
10 10        Adelie  Torgersen           34.6          21.1               198
# ℹ 323 more rows
# ℹ 7 more variables: body_mass_g <int>, sex <fct>, year <int>, PC1 <dbl>,
#   PC2 <dbl>, PC3 <dbl>, PC4 <dbl>
…
